<svg version="1.1" id="Layer_1" xmlns="http://www.w3.org/2000/svg" xmlns:xlink="http://www.w3.org/1999/xlink" x="0px" y="0px"
	 width="314px" height="352px" viewBox="50.833 83.833 314 352" enable-background="new 50.833 83.833 314 352"
	 xml:space="preserve">
<g>
	<path fill="none" stroke="#000000" stroke-width="20" stroke-miterlimit="10" d="M62.865,334.859
		c0,0,35.859-105.085,145.468-105.085c99.994,0,144.979,105.085,144.979,105.085c-35.285,49.002-80.229,88.975-145.223,88.975
		C143.777,423.833,98.241,382.989,62.865,334.859z"></path>
	<circle fill="none" stroke="#000000" stroke-width="20" stroke-miterlimit="10" cx="208.089" cy="156.951" r="62.147"></circle>
</g>
</svg>
