<?xml version="1.0" encoding="utf-8"?>
<!-- Generator: Adobe Illustrator 16.0.0, SVG Export Plug-In . SVG Version: 6.00 Build 0)  -->
<!DOCTYPE svg PUBLIC "-//W3C//DTD SVG 1.1//EN" "http://www.w3.org/Graphics/SVG/1.1/DTD/svg11.dtd">
<svg version="1.1" id="Layer_1" xmlns="http://www.w3.org/2000/svg" xmlns:xlink="http://www.w3.org/1999/xlink" x="0px" y="0px"
	 width="500px" height="250px" viewBox="0 0 500 250" enable-background="new 0 0 500 250" xml:space="preserve">
<g>
	
		<rect x="212.327" y="48.939" transform="matrix(0.8382 0.5453 -0.5453 0.8382 102.6066 -155.2616)" fill-rule="evenodd" clip-rule="evenodd" fill="none" stroke="#FFFFFF" width="201.293" height="92.717"/>
	<circle fill-rule="evenodd" clip-rule="evenodd" fill="none" stroke="#FFFFFF" cx="312.974" cy="95.297" r="41.5"/>
	<g>
		<path fill-rule="evenodd" clip-rule="evenodd" fill="#FFFFFF" d="M341.384,84.943c-1.649,0.59-2.088,1.936-2.158,3.575
			c1.017,0.085,1.868,0.3,1.657,1.752c-0.059,0.404,0.731,0.933,0.97,1.211c0.964,0.087,1.72,0.138,2.471,0.236
			c0.166,0.021,0.381,0.17,0.456,0.321c0.316,0.631-0.595,2.221-1.306,2.367c-0.371,0.077-0.727,0.233-1.028,0.333
			c0.979,1.166,1.838,2.191,2.792,3.327c-0.508,0.179-1.041,0.548-1.547,0.512c-1.629-0.113-2.977,1.016-4.717,0.779
			c-1.115-0.152-2.473-0.142-3.724,0.513c-1.03,0.537-2.369,0.479-3.356,0.65c-0.497,2.043-0.921,3.987-1.45,5.902
			c-0.356,1.294-0.963,2.382-2.545,2.61c-0.5,0.072-1.132,0.57-1.343,1.037c-0.509,1.122-1.331,1.012-2.155,0.7
			c-0.696-0.264-1.197-0.288-1.802,0.225c-0.763,0.646-1.639,0.441-2.425-0.041c-0.99-0.607-1.952-1.262-3.17-2.054
			c-0.862,1.838-1.668,3.525-2.436,5.23c-0.101,0.223-0.113,0.611,0.016,0.788c0.735,1.002,0.295,1.731-0.411,2.5
			c-0.233,0.256-0.294,0.713-0.345,1.092c-0.858,6.492-2.479-0.671-4.364,5.617c-9.801-6.376-19.041,0.862-28.842-5.514
			c0.692-0.348,1.355-0.78,2.082-1.028c1.716-0.587,3.461-1.092,5.197-1.618c0.672-0.206,1.328-0.304,1.552-1.212
			c0.073-0.298,0.911-0.653,1.327-0.578c2.228,0.403,3.664-0.524,4.79-2.376c1.716-2.822,3.122-5.735,3.576-9.057
			c0.158-1.167-0.213-1.974-1.131-2.644c-0.986-0.721-2.62-0.486-3.514-1.313c-1.922-1.778-1.343-3.941,0.111-6.095
			c0.317-0.47,0.502-1.187,0.415-1.74c-0.174-1.104,3.55,0.402,4.818,0.118c-0.525-0.936-3.779-3.812-2.997-4.412
			c1.362-1.046,0.776-0.477-0.194-1.859c-1.074-1.531-2.514-4.855-0.686-5.234c0.734-0.153,3.903,0.951,4.631,0.777
			c1.817-0.434,3.327-1.221,4.32-2.981c1.477-2.62,4.146-3.897,6.586-5.416c0.45-0.281,0.907-0.765,1.072-1.253
			c1.133-3.376,4.801-4.374,7.483-1.992c0.146,0.129,0.313,0.237,0.36,0.273c0.985-0.444,1.898-0.841,2.795-1.271
			c0.148-0.072,0.217-0.298,0.346-0.431c0.369-0.384,0.747-0.759,1.127-1.132c0.298-0.292,0.719-0.523,0.881-0.874
			c0.381-0.835,1.019-1.103,1.86-1.237c0.458-0.072,0.971-0.325,1.288-0.659c0.98-1.031,1.569-1.137,2.906-0.295
			c-0.611,1.085-2.74,1.046-2.264,2.946c0.737-0.087,1.454-0.172,2.328-0.275c-0.244,0.615-0.407,1.023-0.565,1.42
			c1.259-0.175,2.449-0.341,3.64-0.507c0.084,0.111,0.169,0.222,0.254,0.334c-0.287,0.51-0.474,1.132-0.884,1.507
			c-1.022,0.936-1.331,1.956-0.785,3.022c0.808,0.417,1.511,0.78,2.275,1.176c-1.522,1.834,0.604,2.216,0.686,3.26
			c0.684-0.121,1.206-0.214,1.729-0.306c-1.197,1.44-2.323,2.914-2.396,5.13c1.593-1.487,2.468-3.064,2.519-5.047
			c0.371,0.86,0.766,1.711,1.112,2.581c0.787,1.979,1.563,3.96,2.304,5.954c0.066,0.178-0.157,0.462-0.247,0.697
			c-0.562-1.484-2.875-2.587-4.845-2.208C337.978,83.982,339.457,84.939,341.384,84.943z"/>
	</g>
	
		<text transform="matrix(0.8382 0.5453 -0.5453 0.8382 250.3252 28.1216)" fill="#FFFFFF" font-family="'SwedenSans'" font-size="20">10</text>
	
		<text transform="matrix(0.8382 0.5453 -0.5453 0.8382 351.248 164.5586)" fill="#FFFFFF" font-family="'SwedenSans'" font-size="20">10</text>
</g>
<g>
	
		<rect x="44.602" y="91.121" transform="matrix(0.1871 -0.9823 0.9823 0.1871 -22.017 235.4684)" fill-rule="evenodd" clip-rule="evenodd" fill="none" stroke="#FFFFFF" width="173.319" height="79.831"/>
	<circle fill-rule="evenodd" clip-rule="evenodd" fill="none" stroke="#FFFFFF" cx="131.262" cy="131.037" r="35.733"/>
	<g>
		<path fill-rule="evenodd" clip-rule="evenodd" fill="#FFFFFF" d="M113.742,111.777c1.008,1.122,2.224,1.032,3.552,0.553
			c-0.264-0.838-0.37-1.587,0.855-1.892c0.341-0.084,0.505-0.886,0.649-1.167c-0.245-0.796-0.452-1.416-0.619-2.045
			c-0.038-0.139,0.012-0.359,0.107-0.469c0.399-0.457,1.963-0.251,2.312,0.268c0.182,0.271,0.422,0.504,0.6,0.711
			c0.61-1.16,1.146-2.179,1.74-3.31c0.309,0.347,0.777,0.651,0.913,1.066c0.441,1.334,1.781,2.039,2.16,3.504
			c0.243,0.938,0.693,2.017,1.624,2.8c0.764,0.645,1.154,1.73,1.613,2.462c1.791-0.271,3.477-0.567,5.176-0.771
			c1.147-0.138,2.212-0.01,2.91,1.176c0.221,0.375,0.824,0.715,1.265,0.732c1.06,0.039,1.24,0.729,1.262,1.489
			c0.016,0.641,0.161,1.048,0.766,1.362c0.763,0.397,0.886,1.162,0.758,1.946c-0.161,0.987-0.368,1.966-0.603,3.196
			c1.747,0.086,3.353,0.179,4.962,0.234c0.21,0.008,0.524-0.109,0.623-0.27c0.559-0.913,1.283-0.799,2.126-0.487
			c0.28,0.103,0.665,0,0.982-0.082c5.454-1.434,0.274,2.194,5.899,1.646c-1.883,9.889,6.899,14.89,5.017,24.781
			c-0.503-0.438-1.064-0.826-1.499-1.324c-1.028-1.175-2-2.401-2.986-3.613c-0.382-0.469-0.675-0.96-1.471-0.841
			c-0.261,0.039-0.818-0.515-0.895-0.869c-0.405-1.907-1.613-2.749-3.455-3.041c-2.808-0.446-5.588-0.617-8.384,0.104
			c-0.982,0.254-1.503,0.813-1.737,1.764c-0.253,1.021,0.467,2.246,0.1,3.229c-0.79,2.11-2.703,2.355-4.893,1.899
			c-0.478-0.1-1.11-0.013-1.522,0.236c-0.822,0.499-0.837-2.959-1.478-3.877c-0.574,0.724-1.804,4.255-2.538,3.828
			c-1.278-0.745-0.633-0.464-1.417,0.761c-0.869,1.355-3.048,3.587-3.948,2.253c-0.361-0.533-0.516-3.42-0.891-3.942
			c-0.939-1.307-2.059-2.253-3.785-2.471c-2.569-0.321-4.458-2.031-6.464-3.48c-0.371-0.268-0.906-0.473-1.348-0.445
			c-3.061,0.198-5.052-2.398-4.029-5.313c0.055-0.158,0.086-0.326,0.1-0.376c-0.675-0.642-1.289-1.238-1.924-1.813
			c-0.105-0.096-0.308-0.075-0.456-0.135c-0.426-0.169-0.849-0.349-1.27-0.528c-0.329-0.144-0.652-0.402-0.984-0.417
			c-0.79-0.031-1.211-0.452-1.592-1.079c-0.207-0.341-0.576-0.668-0.945-0.812c-1.142-0.444-1.418-0.879-1.184-2.22
			c1.064,0.133,1.728,1.843,3.086,0.843c-0.31-0.559-0.612-1.102-0.979-1.764c0.569-0.007,0.948-0.01,1.315-0.013
			c-0.55-0.947-1.071-1.841-1.592-2.736c0.062-0.103,0.123-0.207,0.184-0.31c0.5,0.063,1.057,0.008,1.489,0.212
			c1.079,0.509,1.992,0.422,2.664-0.361c0.069-0.779,0.129-1.458,0.194-2.196c1.958,0.614,1.569-1.204,2.374-1.61
			c-0.319-0.504-0.564-0.891-0.807-1.278c1.538,0.484,3.079,0.901,4.87,0.235c-1.705-0.785-3.247-0.967-4.844-0.359
			c0.563-0.577,1.113-1.169,1.693-1.729c1.319-1.272,2.645-2.537,3.993-3.777c0.12-0.111,0.419-0.026,0.636-0.031
			c-1,0.931-1.124,3.134-0.178,4.581C114.088,114.805,114.367,113.313,113.742,111.777z"/>
	</g>
	
		<text transform="matrix(0.1871 -0.9823 0.9823 0.1871 98.1748 202.8721)" fill="#FFFFFF" font-family="'SwedenSans'" font-size="17.2205">10</text>
	
		<text transform="matrix(0.1871 -0.9823 0.9823 0.1871 173.9639 77.9424)" fill="#FFFFFF" font-family="'SwedenSans'" font-size="17.2205">10</text>
</g>
<g>
	
		<rect x="182" y="150.129" transform="matrix(0.4385 0.8987 -0.8987 0.4385 294.1931 -116.7156)" fill-rule="evenodd" clip-rule="evenodd" fill="none" stroke="#FFFFFF" stroke-miterlimit="10" width="117" height="53.891"/>
	
		<circle fill-rule="evenodd" clip-rule="evenodd" fill="none" stroke="#FFFFFF" stroke-miterlimit="10" cx="240.5" cy="177.074" r="24.122"/>
	<g>
		<path fill-rule="evenodd" clip-rule="evenodd" fill="#FFFFFF" d="M257.758,180.403c-0.999-0.198-1.62,0.341-2.145,1.137
			c0.482,0.347,0.841,0.709,0.303,1.369c-0.15,0.185,0.086,0.684,0.121,0.893c0.455,0.332,0.816,0.584,1.161,0.857
			c0.077,0.06,0.14,0.199,0.132,0.297c-0.031,0.408-0.96,0.929-1.358,0.789c-0.209-0.073-0.432-0.102-0.612-0.142
			c0.14,0.873,0.262,1.642,0.397,2.493c-0.307-0.063-0.683-0.038-0.925-0.208c-0.777-0.542-1.786-0.382-2.584-1.021
			c-0.511-0.408-1.19-0.809-2.01-0.856c-0.673-0.04-1.324-0.469-1.868-0.679c-0.857,0.87-1.65,1.711-2.486,2.508
			c-0.565,0.539-1.192,0.9-2.048,0.541c-0.271-0.113-0.735-0.055-0.98,0.115c-0.588,0.407-0.965,0.107-1.284-0.295
			c-0.268-0.34-0.511-0.501-0.965-0.427c-0.573,0.095-0.949-0.27-1.196-0.745c-0.312-0.599-0.596-1.212-0.966-1.972
			c-0.98,0.66-1.885,1.259-2.778,1.88c-0.117,0.081-0.239,0.271-0.227,0.397c0.066,0.72-0.371,0.951-0.953,1.123
			c-0.193,0.058-0.359,0.269-0.499,0.441c-2.369,2.98-1.036-1.075-3.854,1.495c-2.98-6.107-9.75-5.261-12.73-11.369
			c0.449,0.034,0.909,0.017,1.345,0.11c1.031,0.22,2.052,0.49,3.074,0.746c0.396,0.099,0.752,0.246,1.136-0.14
			c0.125-0.127,0.65-0.054,0.835,0.108c0.99,0.866,1.982,0.834,3.098,0.247c1.698-0.894,3.27-1.926,4.489-3.446
			c0.428-0.534,0.483-1.047,0.227-1.656c-0.276-0.653-1.161-1.024-1.359-1.704c-0.426-1.461,0.509-2.366,1.877-3.005
			c0.299-0.14,0.605-0.442,0.727-0.743c0.243-0.603,1.649,1.261,2.366,1.498c0.018-0.623-0.745-3.029-0.175-3.095
			c0.992-0.114,0.529-0.006,0.459-0.985c-0.078-1.084,0.198-3.171,1.223-2.813c0.411,0.143,1.661,1.641,2.076,1.771
			c1.036,0.326,2.023,0.386,3.045-0.195c1.518-0.864,3.23-0.703,4.901-0.731c0.309-0.005,0.681-0.109,0.909-0.304
			c1.575-1.345,3.701-0.745,4.326,1.244c0.034,0.107,0.085,0.211,0.099,0.243c0.623,0.073,1.196,0.149,1.772,0.202
			c0.096,0.009,0.197-0.084,0.301-0.111c0.299-0.081,0.6-0.155,0.9-0.228c0.235-0.057,0.515-0.046,0.701-0.173
			c0.438-0.302,0.836-0.245,1.296-0.061c0.251,0.101,0.582,0.128,0.84,0.057c0.797-0.221,1.122-0.098,1.537,0.722
			c-0.63,0.358-1.68-0.297-2.009,0.792c0.393,0.177,0.776,0.349,1.241,0.559c-0.305,0.233-0.508,0.389-0.706,0.539
			c0.681,0.289,1.324,0.562,1.968,0.834c0.008,0.081,0.017,0.162,0.025,0.243c-0.296,0.168-0.574,0.423-0.891,0.487
			c-0.789,0.16-1.248,0.577-1.294,1.271c0.277,0.449,0.52,0.841,0.782,1.266c-1.307,0.46-0.361,1.286-0.633,1.83
			c0.377,0.145,0.665,0.254,0.954,0.365c-1.027,0.36-2.029,0.758-2.729,1.841c1.239-0.266,2.146-0.79,2.765-1.764
			c-0.072,0.54-0.13,1.083-0.217,1.619c-0.199,1.222-0.404,2.441-0.632,3.656c-0.02,0.108-0.216,0.184-0.331,0.273
			c0.164-0.907-0.66-2.148-1.755-2.548C256.348,178.906,256.798,179.826,257.758,180.403z"/>
	</g>
	
		<text transform="matrix(0.4385 0.8987 -0.8987 0.4385 229.3477 124.8623)" fill="#FFFFFF" font-family="'SwedenSans'" font-size="11.6248">10</text>
	
		<text transform="matrix(0.4385 0.8987 -0.8987 0.4385 238.8789 223.041)" fill="#FFFFFF" font-family="'SwedenSans'" font-size="11.6248">10</text>
</g>
<g>
	
		<rect x="420.511" y="42.494" transform="matrix(-0.1911 0.9816 -0.9816 -0.1911 614.0066 -380.9531)" fill-rule="evenodd" clip-rule="evenodd" fill="none" stroke="#FFFFFF" stroke-miterlimit="10" width="86.91" height="40.031"/>
	
		<circle fill-rule="evenodd" clip-rule="evenodd" fill="none" stroke="#FFFFFF" stroke-miterlimit="10" cx="463.966" cy="62.509" r="17.918"/>
	<g>
		<path fill-rule="evenodd" clip-rule="evenodd" fill="#FFFFFF" d="M472.711,72.203c-0.504-0.564-1.113-0.522-1.781-0.284
			c0.131,0.42,0.184,0.796-0.433,0.946c-0.171,0.043-0.255,0.444-0.327,0.585c0.121,0.399,0.223,0.71,0.306,1.026
			c0.019,0.069-0.007,0.181-0.056,0.234c-0.2,0.229-0.984,0.122-1.158-0.139c-0.091-0.136-0.211-0.253-0.3-0.357
			c-0.308,0.579-0.579,1.091-0.88,1.655c-0.153-0.174-0.387-0.327-0.455-0.536c-0.219-0.671-0.889-1.026-1.075-1.762
			c-0.12-0.47-0.344-1.013-0.809-1.407c-0.382-0.325-0.575-0.871-0.804-1.238c-0.898,0.132-1.744,0.277-2.598,0.376
			c-0.575,0.067-1.108,0-1.456-0.596c-0.11-0.188-0.411-0.361-0.632-0.37c-0.532-0.022-0.621-0.369-0.629-0.749
			c-0.008-0.321-0.08-0.526-0.383-0.685c-0.381-0.201-0.441-0.585-0.376-0.978c0.083-0.495,0.188-0.985,0.309-1.601
			c-0.876-0.048-1.682-0.097-2.487-0.128c-0.105-0.005-0.264,0.054-0.313,0.134c-0.283,0.456-0.646,0.398-1.068,0.24
			c-0.14-0.053-0.333-0.002-0.492,0.038c-2.738,0.708-0.133-1.101-2.955-0.837c0.965-4.955-3.428-7.48-2.464-12.437
			c0.252,0.221,0.532,0.416,0.749,0.667c0.513,0.592,0.998,1.209,1.49,1.818c0.189,0.235,0.336,0.482,0.734,0.425
			c0.132-0.02,0.41,0.259,0.447,0.438c0.199,0.956,0.804,1.381,1.727,1.532c1.407,0.229,2.801,0.32,4.205-0.035
			c0.492-0.126,0.755-0.405,0.874-0.882c0.13-0.51-0.229-1.127-0.044-1.618c0.4-1.057,1.36-1.175,2.459-0.942
			c0.238,0.052,0.556,0.009,0.763-0.115c0.413-0.249,0.414,1.485,0.733,1.947c0.289-0.362,0.913-2.13,1.28-1.914
			c0.64,0.376,0.316,0.234,0.712-0.378c0.439-0.679,1.536-1.793,1.984-1.122c0.181,0.268,0.252,1.716,0.439,1.978
			c0.468,0.658,1.027,1.135,1.893,1.248c1.287,0.165,2.23,1.027,3.234,1.758c0.186,0.135,0.452,0.24,0.675,0.227
			c1.535-0.094,2.528,1.213,2.009,2.673c-0.028,0.078-0.043,0.163-0.051,0.188c0.338,0.322,0.644,0.624,0.961,0.912
			c0.053,0.049,0.154,0.039,0.229,0.069c0.213,0.085,0.425,0.176,0.636,0.268c0.165,0.072,0.326,0.203,0.492,0.211
			c0.396,0.017,0.606,0.229,0.796,0.544c0.104,0.172,0.287,0.336,0.473,0.409c0.572,0.226,0.709,0.444,0.589,1.116
			c-0.533-0.069-0.862-0.928-1.546-0.43c0.154,0.28,0.305,0.555,0.487,0.887c-0.286,0.002-0.476,0.003-0.659,0.004
			c0.273,0.476,0.533,0.926,0.792,1.375c-0.03,0.051-0.062,0.104-0.093,0.155c-0.25-0.032-0.529-0.006-0.746-0.109
			c-0.54-0.259-0.998-0.216-1.336,0.175c-0.037,0.391-0.068,0.731-0.103,1.101c-0.98-0.313-0.79,0.602-1.194,0.803
			c0.16,0.254,0.281,0.448,0.403,0.643c-0.771-0.245-1.542-0.458-2.442-0.128c0.854,0.396,1.627,0.491,2.429,0.19
			c-0.284,0.288-0.561,0.584-0.853,0.863c-0.664,0.635-1.332,1.267-2.01,1.886c-0.061,0.056-0.211,0.013-0.319,0.015
			c0.503-0.466,0.569-1.569,0.099-2.297C472.543,70.685,472.4,71.432,472.711,72.203z"/>
	</g>
	
		<text transform="matrix(-0.1911 0.9816 -0.9816 -0.1911 480.7051 26.5562)" fill="#FFFFFF" font-family="'SwedenSans'" font-size="8.6351">10</text>
	
		<text transform="matrix(-0.1911 0.9816 -0.9816 -0.1911 442.4434 89.0459)" fill="#FFFFFF" font-family="'SwedenSans'" font-size="8.6351">10</text>
</g>
<g>
	
		<rect x="-70.792" y="-94.601" transform="matrix(-0.4476 -0.8943 0.8943 -0.4476 86.3576 -43.1368)" fill-rule="evenodd" clip-rule="evenodd" fill="none" stroke="#FFFFFF" stroke-miterlimit="10" width="201.293" height="92.716"/>
	<path fill-rule="evenodd" clip-rule="evenodd" fill="none" stroke="#FFFFFF" stroke-miterlimit="10" d="M11.281-85.355
		c20.499-10.259,45.426-1.96,55.685,18.538c10.26,20.499,1.961,45.426-18.538,55.685C27.93-0.872,3.002-9.171-7.257-29.669
		C-17.517-50.168-9.218-75.096,11.281-85.355z"/>
	<g>
		<path fill-rule="evenodd" clip-rule="evenodd" fill="#FFFFFF" d="M0.107-53.67c1.722,0.324,2.78-0.615,3.669-1.994
			c-0.834-0.587-1.46-1.203-0.544-2.35c0.255-0.318-0.159-1.174-0.224-1.535c-0.788-0.563-1.415-0.988-2.014-1.453
			c-0.133-0.102-0.242-0.34-0.23-0.507c0.046-0.704,1.635-1.615,2.323-1.383c0.359,0.122,0.745,0.167,1.056,0.233
			c-0.255-1.501-0.479-2.819-0.727-4.282c0.528,0.103,1.174,0.054,1.593,0.341c1.348,0.92,3.082,0.627,4.463,1.712
			c0.886,0.694,2.063,1.372,3.472,1.44c1.16,0.057,2.286,0.784,3.225,1.136c1.461-1.512,2.81-2.974,4.234-4.359
			c0.962-0.937,2.035-1.569,3.515-0.967c0.468,0.191,1.265,0.081,1.683-0.215c1.006-0.711,1.659-0.2,2.213,0.485
			c0.468,0.58,0.887,0.854,1.668,0.717c0.984-0.171,1.637,0.447,2.072,1.261c0.547,1.024,1.046,2.075,1.697,3.375
			c1.673-1.151,3.221-2.199,4.746-3.282c0.199-0.141,0.407-0.47,0.384-0.688c-0.128-1.237,0.621-1.643,1.619-1.949
			c0.331-0.103,0.614-0.467,0.849-0.768c4.023-5.167,1.8,1.833,6.605-2.64c5.233,10.456,16.865,8.881,22.098,19.337
			c-0.772-0.05-1.564-0.012-2.315-0.166c-1.777-0.361-3.539-0.807-5.304-1.23c-0.683-0.163-1.299-0.41-1.951,0.26
			c-0.213,0.22-1.116,0.104-1.438-0.171c-1.718-1.474-3.426-1.4-5.333-0.371c-2.907,1.567-5.593,3.371-7.665,6.007
			c-0.727,0.927-0.814,1.811-0.36,2.853c0.486,1.121,2.014,1.744,2.368,2.909c0.759,2.506-0.834,4.08-3.178,5.203
			c-0.511,0.245-1.033,0.771-1.237,1.291c-0.407,1.04-2.859-2.141-4.097-2.537c-0.02,1.073,1.334,5.199,0.355,5.322
			c-1.704,0.214-0.911,0.019-0.772,1.702c0.153,1.864-0.285,5.459-2.055,4.863c-0.711-0.238-2.888-2.793-3.603-3.011
			c-1.788-0.544-3.488-0.628-5.235,0.388c-2.598,1.514-5.547,1.267-8.42,1.344c-0.53,0.015-1.17,0.201-1.558,0.539
			c-2.685,2.34-6.354,1.347-7.464-2.064c-0.061-0.185-0.15-0.362-0.173-0.418c-1.074-0.115-2.063-0.234-3.053-0.316
			c-0.165-0.014-0.338,0.147-0.516,0.197c-0.513,0.144-1.029,0.277-1.545,0.407c-0.404,0.101-0.885,0.088-1.202,0.309
			c-0.751,0.528-1.437,0.437-2.23,0.126c-0.432-0.169-1.002-0.21-1.444-0.083c-1.367,0.394-1.928,0.188-2.657-1.214
			c1.077-0.627,2.894,0.482,3.442-1.397c-0.68-0.297-1.341-0.586-2.147-0.939c0.521-0.407,0.869-0.677,1.206-0.939
			c-1.175-0.486-2.286-0.944-3.397-1.402c-0.016-0.139-0.033-0.277-0.049-0.417c0.505-0.294,0.98-0.737,1.524-0.854
			c1.355-0.291,2.136-1.015,2.205-2.21c-0.486-0.768-0.909-1.437-1.369-2.165c2.24-0.813,0.599-2.217,1.056-3.159
			c-0.651-0.241-1.149-0.425-1.647-0.611c1.761-0.638,3.477-1.339,4.661-3.215c-2.126,0.478-3.678,1.396-4.725,3.082
			c0.114-0.93,0.204-1.864,0.345-2.79c0.321-2.104,0.653-4.207,1.022-6.301c0.033-0.187,0.369-0.319,0.565-0.477
			c-0.266,1.565,1.173,3.686,3.064,4.354C2.561-51.12,1.768-52.693,0.107-53.67z"/>
	</g>
	
		<text transform="matrix(-0.4476 -0.8943 0.8943 -0.4476 49.9521 41.3848)" fill="#FFFFFF" font-family="'SwedenSans'" font-size="20">10</text>
	
		<text transform="matrix(-0.4476 -0.8943 0.8943 -0.4476 31.8428 -127.3535)" stroke="#FFFFFF" font-family="'SwedenSans'" font-size="20">10</text>
</g>
<g>
	
		<rect x="377.138" y="174.71" transform="matrix(0.8386 -0.5447 0.5447 0.8386 -39.7807 271.4603)" fill-rule="evenodd" clip-rule="evenodd" fill="none" stroke="#FFFFFF" stroke-miterlimit="10" width="122.28" height="56.323"/>
	
		<circle fill-rule="evenodd" clip-rule="evenodd" fill="none" stroke="#FFFFFF" stroke-miterlimit="10" cx="438.278" cy="202.871" r="25.21"/>
	<g>
		<path fill-rule="evenodd" clip-rule="evenodd" fill="#FFFFFF" d="M439.535,184.546c-0.079,1.061,0.561,1.637,1.452,2.079
			c0.299-0.543,0.627-0.964,1.382-0.488c0.21,0.133,0.698-0.175,0.911-0.239c0.286-0.514,0.5-0.921,0.739-1.314
			c0.054-0.086,0.188-0.169,0.291-0.172c0.429-0.021,1.086,0.876,0.993,1.307c-0.049,0.226-0.051,0.461-0.069,0.653
			c0.89-0.256,1.67-0.479,2.535-0.729c-0.025,0.326,0.049,0.713-0.097,0.985c-0.464,0.876-0.17,1.903-0.731,2.811
			c-0.357,0.582-0.688,1.339-0.633,2.194c0.044,0.703-0.318,1.433-0.467,2.022c1.012,0.78,1.986,1.495,2.919,2.262
			c0.631,0.517,1.085,1.121,0.822,2.056c-0.083,0.295,0.037,0.77,0.244,1.001c0.497,0.56,0.233,0.989-0.143,1.369
			c-0.318,0.323-0.455,0.594-0.319,1.056c0.17,0.583-0.16,1.019-0.62,1.336c-0.582,0.401-1.183,0.772-1.923,1.254
			c0.809,0.933,1.546,1.795,2.303,2.643c0.099,0.11,0.312,0.213,0.442,0.186c0.737-0.162,1.033,0.263,1.286,0.844
			c0.084,0.193,0.323,0.34,0.521,0.461c3.393,2.079-0.983,1.211,2.043,3.809c-5.957,3.869-4.218,10.782-10.175,14.651
			c-0.021-0.47-0.099-0.944-0.056-1.409c0.097-1.097,0.247-2.19,0.382-3.284c0.051-0.423,0.159-0.813-0.289-1.159
			c-0.146-0.114-0.138-0.667,0.006-0.88c0.772-1.138,0.612-2.164-0.138-3.245c-1.145-1.649-2.415-3.148-4.146-4.22
			c-0.609-0.375-1.149-0.368-1.747-0.024c-0.644,0.371-0.916,1.335-1.595,1.628c-1.461,0.629-2.52-0.227-3.357-1.565
			c-0.183-0.291-0.534-0.57-0.863-0.66c-0.655-0.175,1.099-1.87,1.254-2.645c-0.648,0.061-3.048,1.157-3.188,0.575
			c-0.245-1.014-0.074-0.548-1.08-0.351c-1.115,0.22-3.315,0.199-3.075-0.909c0.096-0.445,1.49-1.933,1.573-2.379
			c0.208-1.116,0.143-2.149-0.59-3.135c-1.09-1.465-1.141-3.262-1.383-4.991c-0.045-0.319-0.2-0.691-0.43-0.903
			c-1.597-1.463-1.246-3.744,0.738-4.646c0.108-0.049,0.208-0.115,0.241-0.133c-0.004-0.657,0.001-1.261-0.017-1.864
			c-0.003-0.101-0.112-0.195-0.154-0.299c-0.122-0.3-0.237-0.603-0.351-0.906c-0.088-0.236-0.113-0.527-0.269-0.703
			c-0.368-0.418-0.36-0.837-0.229-1.338c0.074-0.271,0.06-0.618-0.047-0.878c-0.331-0.798-0.244-1.151,0.553-1.686
			c0.452,0.606-0.095,1.778,1.077,1.982c0.134-0.431,0.263-0.85,0.421-1.361c0.281,0.288,0.468,0.479,0.649,0.666
			c0.213-0.743,0.414-1.445,0.616-2.146c0.082-0.02,0.165-0.039,0.248-0.059c0.212,0.285,0.511,0.541,0.618,0.863
			c0.267,0.798,0.758,1.22,1.484,1.18c0.43-0.346,0.806-0.646,1.213-0.974c0.644,1.298,1.38,0.212,1.979,0.425
			c0.102-0.411,0.179-0.725,0.257-1.036c0.504,1.019,1.045,2.007,2.258,2.595c-0.433-1.251-1.094-2.126-2.183-2.643
			c0.57,0.006,1.14-0.003,1.708,0.02c1.292,0.051,2.584,0.108,3.873,0.188c0.115,0.007,0.219,0.201,0.326,0.31
			c-0.963-0.055-2.145,0.957-2.42,2.145C438.162,186.199,439.059,185.614,439.535,184.546z"/>
	</g>
	
		<text transform="matrix(0.8386 -0.5447 0.5447 0.8386 385.5352 221.0879)" fill="#FFFFFF" font-family="'SwedenSans'" font-size="12.1495">10</text>
	
		<text transform="matrix(0.8386 -0.5447 0.5447 0.8386 486.168 198.7012)" fill="#FFFFFF" font-family="'SwedenSans'" font-size="12.1495">10</text>
</g>
<g>
	
		<rect x="-35.902" y="228.086" transform="matrix(0.334 0.9426 -0.9426 0.334 276.1669 136.559)" fill-rule="evenodd" clip-rule="evenodd" fill="none" stroke="#FFFFFF" width="154.695" height="71.254"/>
	<circle fill-rule="evenodd" clip-rule="evenodd" fill="none" stroke="#FFFFFF" cx="41.446" cy="263.713" r="31.893"/>
	<g>
		<path fill-rule="evenodd" clip-rule="evenodd" fill="#FFFFFF" d="M63.619,270.667c-1.282-0.41-2.178,0.206-2.987,1.173
			c0.581,0.526,0.999,1.056,0.193,1.844c-0.225,0.219,0.009,0.911,0.025,1.192c0.548,0.503,0.984,0.887,1.397,1.298
			c0.092,0.09,0.153,0.281,0.128,0.408c-0.101,0.533-1.4,1.078-1.903,0.835c-0.262-0.126-0.552-0.197-0.782-0.277
			c0.052,1.169,0.099,2.195,0.149,3.335c-0.394-0.128-0.891-0.152-1.183-0.411c-0.942-0.83-2.292-0.771-3.242-1.729
			c-0.61-0.612-1.443-1.241-2.512-1.426c-0.879-0.153-1.67-0.814-2.352-1.172c-1.259,1.015-2.424,2.003-3.643,2.924
			c-0.821,0.624-1.7,1.004-2.772,0.404c-0.339-0.189-0.957-0.181-1.304,0.005c-0.834,0.447-1.284-0.004-1.642-0.579
			c-0.303-0.486-0.596-0.735-1.205-0.704c-0.766,0.037-1.206-0.497-1.461-1.158c-0.32-0.833-0.601-1.682-0.975-2.734
			c-1.385,0.72-2.664,1.372-3.929,2.053c-0.166,0.089-0.354,0.321-0.359,0.489c-0.019,0.955-0.628,1.194-1.418,1.334
			c-0.263,0.046-0.513,0.298-0.721,0.505c-3.557,3.56-1.199-1.568-5.287,1.388c-3.001-8.47-12.022-8.369-15.024-16.839
			c0.585,0.111,1.193,0.156,1.751,0.346c1.322,0.443,2.623,0.95,3.928,1.44c0.506,0.188,0.952,0.436,1.514-0.015
			c0.183-0.147,0.861,0.026,1.08,0.268c1.171,1.286,2.48,1.392,4.033,0.787c2.365-0.92,4.583-2.041,6.413-3.855
			c0.642-0.639,0.792-1.304,0.545-2.142c-0.265-0.901-1.371-1.521-1.531-2.442c-0.341-1.983,1.022-3.032,2.916-3.668
			c0.413-0.138,0.86-0.489,1.066-0.867c0.408-0.755,1.977,1.904,2.884,2.323c0.117-0.816-0.524-4.092,0.233-4.093
			c1.319-0.002,0.696,0.071,0.749-1.226c0.059-1.436,0.734-4.137,2.027-3.514c0.52,0.249,1.938,2.403,2.463,2.637
			c1.312,0.585,2.601,0.81,4.029,0.2c2.125-0.909,4.351-0.441,6.548-0.229c0.407,0.04,0.912-0.043,1.24-0.263
			c2.269-1.532,4.972-0.427,5.498,2.28c0.028,0.146,0.08,0.29,0.093,0.335c0.808,0.189,1.55,0.374,2.298,0.53
			c0.124,0.025,0.272-0.08,0.413-0.102c0.405-0.062,0.81-0.114,1.216-0.164c0.318-0.039,0.683,0.016,0.946-0.122
			c0.623-0.332,1.137-0.198,1.713,0.114c0.313,0.17,0.744,0.255,1.093,0.199c1.081-0.17,1.49,0.04,1.912,1.179
			c-0.88,0.376-2.161-0.643-2.757,0.739c0.49,0.292,0.967,0.574,1.548,0.92c-0.436,0.261-0.727,0.435-1.008,0.603
			c0.85,0.481,1.655,0.936,2.458,1.391c-0.001,0.107,0,0.215-0.001,0.323c-0.414,0.177-0.818,0.469-1.243,0.506
			c-1.061,0.094-1.726,0.571-1.891,1.478c0.298,0.632,0.558,1.182,0.84,1.78c-1.786,0.408-0.667,1.634-1.104,2.309
			c0.474,0.246,0.835,0.434,1.198,0.622c-1.404,0.319-2.78,0.693-3.859,2.012c1.666-0.164,2.937-0.717,3.895-1.904
			c-0.174,0.698-0.332,1.401-0.527,2.095c-0.444,1.574-0.896,3.146-1.375,4.709c-0.043,0.14-0.313,0.208-0.477,0.31
			c0.351-1.168-0.546-2.921-1.925-3.609C61.989,268.49,62.445,269.765,63.619,270.667z"/>
	</g>
	
		<text transform="matrix(0.334 0.9426 -0.9426 0.334 34.5996 193.4551)" fill="#FFFFFF" font-family="'SwedenSans'" font-size="15.3701">10</text>
	
		<text transform="matrix(0.334 0.9426 -0.9426 0.334 32.4434 323.8584)" fill="#FFFFFF" font-family="'SwedenSans'" font-size="15.3701">10</text>
</g>
</svg>
