<svg version="1.1" id="Layer_1" xmlns="http://www.w3.org/2000/svg" xmlns:xlink="http://www.w3.org/1999/xlink" x="0px" y="0px"
	 width="418.479px" height="422.979px" viewBox="0 0 418.479 422.979" enable-background="new 0 0 418.479 422.979"
	 xml:space="preserve">
<circle fill="none" stroke="#000000" stroke-width="33" stroke-miterlimit="10" cx="209.899" cy="212.333" r="191.808"></circle>
<line fill="none" stroke="#000000" stroke-width="34" stroke-miterlimit="10" x1="209.899" y1="78.365" x2="209.899" y2="348.422"></line>
<line fill="none" stroke="#000000" stroke-width="34" stroke-miterlimit="10" x1="344.927" y1="212.332" x2="74.871" y2="212.332"></line>
</svg>
